<svg class="fill-current h-6 w-min" width="1242" height="191" viewBox="0 0 1242 191" xmlns="http://www.w3.org/2000/svg">
<path d="M81.4706 123.052C81.4706 99.8438 72.9287 88.2397 55.8448 88.2397C52.138 88.2397 48.4311 88.7232 44.7242 89.6902C41.1785 90.6572 38.2775 91.866 36.0211 93.3165V158.831C37.794 159.154 40.0503 159.476 42.7902 159.798C45.5301 159.96 48.5117 160.04 51.7351 160.04C61.5663 160.04 68.9801 156.656 73.9763 149.887C78.9725 143.118 81.4706 134.173 81.4706 123.052ZM118.217 124.019C118.217 134.173 116.686 143.359 113.624 151.579C110.723 159.798 106.452 166.809 100.811 172.611C95.1699 178.413 88.2397 182.926 80.0201 186.149C71.8005 189.212 62.4527 190.743 51.9768 190.743C47.6253 190.743 43.032 190.501 38.1969 190.018C33.523 189.695 28.8491 189.212 24.1753 188.567C19.6625 187.922 15.311 187.197 11.1206 186.391C6.93024 185.424 3.22337 184.457 0 183.49V5.80206L36.0211 0V63.3392C40.0503 61.5663 44.2407 60.1964 48.5923 59.2294C52.9438 58.2624 57.6177 57.7789 62.6139 57.7789C71.6393 57.7789 79.6172 59.3905 86.5474 62.6139C93.4777 65.6761 99.2797 70.1082 103.954 75.9103C108.627 81.7124 112.173 88.7232 114.591 96.9428C117.008 105.001 118.217 114.027 118.217 124.019Z" fill="#191919" />
<path d="M194.494 162.458C198.039 162.458 201.424 162.377 204.647 162.216C207.871 162.055 210.449 161.813 212.383 161.491V134.173C210.933 133.85 208.757 133.528 205.856 133.206C202.955 132.883 200.296 132.722 197.878 132.722C194.494 132.722 191.27 132.964 188.208 133.447C185.307 133.77 182.728 134.495 180.472 135.623C178.216 136.751 176.443 138.282 175.154 140.216C173.864 142.15 173.219 144.568 173.219 147.469C173.219 153.11 175.073 157.059 178.78 159.315C182.648 161.41 187.886 162.458 194.494 162.458ZM191.593 57.0536C202.23 57.0536 211.094 58.2624 218.185 60.6799C225.277 63.0974 230.918 66.5625 235.108 71.0752C239.46 75.588 242.522 81.0677 244.295 87.5144C246.068 93.9612 246.954 101.133 246.954 109.03V183.974C241.797 185.102 234.625 186.391 225.438 187.842C216.251 189.453 205.131 190.259 192.076 190.259C183.857 190.259 176.362 189.534 169.593 188.083C162.985 186.633 157.264 184.296 152.429 181.073C147.594 177.688 143.887 173.337 141.308 168.018C138.729 162.699 137.44 156.172 137.44 148.436C137.44 141.022 138.891 134.737 141.792 129.579C144.854 124.422 148.883 120.312 153.879 117.25C158.875 114.188 164.597 112.012 171.044 110.723C177.49 109.272 184.179 108.547 191.109 108.547C195.783 108.547 199.893 108.789 203.439 109.272C207.145 109.594 210.127 110.078 212.383 110.723V107.338C212.383 101.214 210.53 96.2981 206.823 92.5912C203.116 88.8844 196.669 87.0309 187.483 87.0309C181.358 87.0309 175.315 87.5144 169.351 88.4814C163.388 89.2873 158.231 90.496 153.879 92.1077L149.286 63.0974C151.381 62.4527 153.96 61.8081 157.022 61.1634C160.245 60.3576 163.711 59.7129 167.417 59.2294C171.124 58.5847 174.992 58.1012 179.022 57.7789C183.212 57.2954 187.402 57.0536 191.593 57.0536Z" fill="#191919" />
<path d="M279.526 64.7897C285.651 63.0168 293.548 61.4051 303.218 59.9546C312.888 58.3429 323.042 57.5371 333.679 57.5371C344.477 57.5371 353.422 58.9876 360.513 61.8886C367.766 64.6285 373.488 68.5771 377.678 73.7345C381.868 78.8919 384.85 85.0163 386.623 92.1077C388.396 99.1991 389.282 107.096 389.282 115.799V187.6H353.261V120.151C353.261 108.547 351.73 100.327 348.668 95.4923C345.605 90.6572 339.884 88.2397 331.503 88.2397C328.924 88.2397 326.185 88.4009 323.284 88.7232C320.383 88.8844 317.804 89.1261 315.548 89.4484V187.6H279.526V64.7897Z" fill="#191919" />
<path d="M457.908 106.371C461.453 102.503 465.08 98.4739 468.787 94.2835C472.655 90.0931 476.361 85.9833 479.907 81.9541C483.453 77.7637 486.757 73.8151 489.819 70.1082C493.042 66.4014 495.782 63.178 498.039 60.4381H540.829C532.287 70.2694 523.906 79.6978 515.687 88.7232C507.628 97.5875 498.764 106.774 489.094 116.283C493.929 120.635 498.925 125.873 504.082 131.997C509.24 137.96 514.236 144.165 519.071 150.612C523.906 157.059 528.338 163.505 532.367 169.952C536.397 176.399 539.781 182.281 542.521 187.6H501.181C498.603 183.41 495.621 178.816 492.237 173.82C489.013 168.663 485.548 163.586 481.841 158.59C478.134 153.432 474.186 148.517 469.995 143.843C465.966 139.169 461.937 135.22 457.908 131.997V187.6H421.887V5.80206L457.908 0V106.371Z" fill="#191919" />
<path d="M661.918 20.0655H699.632V187.6H661.918V116.525H598.579V187.6H560.866V20.0655H598.579V58H560.866V80H598.579V84.1299L631.5 116.525H661.918L630 84.1299H661.918V20.0655Z" fill="#191919" />
<path d="M847.97 183.248C841.845 185.021 833.948 186.633 824.278 188.083C814.608 189.695 804.454 190.501 793.817 190.501C783.019 190.501 773.993 189.05 766.741 186.149C759.649 183.248 754.009 179.219 749.818 174.062C745.628 168.743 742.646 162.458 740.873 155.205C739.1 147.953 738.214 139.975 738.214 131.272V60.4381H774.235V126.92C774.235 138.524 775.766 146.905 778.828 152.062C781.891 157.22 787.612 159.798 795.993 159.798C798.572 159.798 801.311 159.718 804.213 159.557C807.114 159.234 809.692 158.912 811.949 158.59V60.4381H847.97V183.248Z" fill="#191919" />
<path d="M963.254 123.052C963.254 99.8438 954.712 88.2397 937.628 88.2397C933.921 88.2397 930.214 88.7232 926.507 89.6902C922.961 90.6572 920.06 91.866 917.804 93.3165V158.831C919.577 159.154 921.833 159.476 924.573 159.798C927.313 159.96 930.295 160.04 933.518 160.04C943.349 160.04 950.763 156.656 955.759 149.887C960.755 143.118 963.254 134.173 963.254 123.052ZM1000 124.019C1000 134.173 998.469 143.359 995.407 151.579C992.506 159.798 988.235 166.809 982.594 172.611C976.953 178.413 970.023 182.926 961.803 186.149C953.584 189.212 944.236 190.743 933.76 190.743C929.408 190.743 924.815 190.501 919.98 190.018C915.306 189.695 910.632 189.212 905.958 188.567C901.446 187.922 897.094 187.197 892.904 186.391C888.713 185.424 885.006 184.457 881.783 183.49V5.80206L917.804 0V63.3392C921.833 61.5663 926.024 60.1964 930.375 59.2294C934.727 58.2624 939.401 57.7789 944.397 57.7789C953.422 57.7789 961.4 59.3905 968.33 62.6139C975.261 65.6761 981.063 70.1082 985.737 75.9103C990.41 81.7124 993.956 88.7232 996.374 96.9428C998.791 105.001 1000 114.027 1000 124.019Z" fill="#191919" />
<path d="M1033.92 179.64C1033.92 183.24 1032.76 186 1030.44 187.92C1028.2 189.76 1025.64 190.68 1022.76 190.68C1019.88 190.68 1017.28 189.76 1014.96 187.92C1012.72 186 1011.6 183.24 1011.6 179.64C1011.6 176.04 1012.72 173.32 1014.96 171.48C1017.28 169.56 1019.88 168.6 1022.76 168.6C1025.64 168.6 1028.2 169.56 1030.44 171.48C1032.76 173.32 1033.92 176.04 1033.92 179.64Z" fill="#191919" />
<path d="M1057.54 157.08C1057.54 162.6 1058.78 167.04 1061.26 170.4C1063.74 173.76 1067.42 175.44 1072.3 175.44C1073.9 175.44 1075.38 175.4 1076.74 175.32C1078.1 175.16 1079.22 175 1080.1 174.84V142.32C1078.98 141.6 1077.5 141 1075.66 140.52C1073.9 140.04 1072.1 139.8 1070.26 139.8C1061.78 139.8 1057.54 145.56 1057.54 157.08ZM1097.98 187.08C1096.38 187.56 1094.54 188.04 1092.46 188.52C1090.38 188.92 1088.18 189.28 1085.86 189.6C1083.62 189.92 1081.3 190.16 1078.9 190.32C1076.58 190.56 1074.34 190.68 1072.18 190.68C1066.98 190.68 1062.34 189.92 1058.26 188.4C1054.18 186.88 1050.74 184.72 1047.94 181.92C1045.14 179.04 1042.98 175.6 1041.46 171.6C1040.02 167.52 1039.3 162.96 1039.3 157.92C1039.3 152.8 1039.94 148.2 1041.22 144.12C1042.5 139.96 1044.34 136.44 1046.74 133.56C1049.14 130.68 1052.06 128.48 1055.5 126.96C1059.02 125.44 1063.02 124.68 1067.5 124.68C1069.98 124.68 1072.18 124.92 1074.1 125.4C1076.1 125.88 1078.1 126.56 1080.1 127.44V98.88L1097.98 96V187.08Z" fill="#191919" />
<path d="M1111.72 158.04C1111.72 152.44 1112.56 147.56 1114.24 143.4C1116 139.16 1118.28 135.64 1121.08 132.84C1123.88 130.04 1127.08 127.92 1130.68 126.48C1134.36 125.04 1138.12 124.32 1141.96 124.32C1150.92 124.32 1158 127.08 1163.2 132.6C1168.4 138.04 1171 146.08 1171 156.72C1171 157.76 1170.96 158.92 1170.88 160.2C1170.8 161.4 1170.72 162.48 1170.64 163.44H1130.08C1130.48 167.12 1132.2 170.04 1135.24 172.2C1138.28 174.36 1142.36 175.44 1147.48 175.44C1150.76 175.44 1153.96 175.16 1157.08 174.6C1160.28 173.96 1162.88 173.2 1164.88 172.32L1167.28 186.84C1166.32 187.32 1165.04 187.8 1163.44 188.28C1161.84 188.76 1160.04 189.16 1158.04 189.48C1156.12 189.88 1154.04 190.2 1151.8 190.44C1149.56 190.68 1147.32 190.8 1145.08 190.8C1139.4 190.8 1134.44 189.96 1130.2 188.28C1126.04 186.6 1122.56 184.32 1119.76 181.44C1117.04 178.48 1115 175 1113.64 171C1112.36 167 1111.72 162.68 1111.72 158.04ZM1153.72 151.2C1153.64 149.68 1153.36 148.2 1152.88 146.76C1152.48 145.32 1151.8 144.04 1150.84 142.92C1149.96 141.8 1148.8 140.88 1147.36 140.16C1146 139.44 1144.28 139.08 1142.2 139.08C1140.2 139.08 1138.48 139.44 1137.04 140.16C1135.6 140.8 1134.4 141.68 1133.44 142.8C1132.48 143.92 1131.72 145.24 1131.16 146.76C1130.68 148.2 1130.32 149.68 1130.08 151.2H1153.72Z" fill="#191919" />
<path d="M1201.96 189.12C1197.88 181.12 1193.72 171.76 1189.48 161.04C1185.32 150.32 1181.36 138.64 1177.6 126H1196.56C1197.36 129.12 1198.28 132.52 1199.32 136.2C1200.44 139.8 1201.56 143.48 1202.68 147.24C1203.88 150.92 1205.04 154.52 1206.16 158.04C1207.36 161.56 1208.52 164.76 1209.64 167.64C1210.68 164.76 1211.8 161.56 1213 158.04C1214.2 154.52 1215.36 150.92 1216.48 147.24C1217.68 143.48 1218.8 139.8 1219.84 136.2C1220.96 132.52 1221.92 129.12 1222.72 126H1241.2C1237.44 138.64 1233.44 150.32 1229.2 161.04C1225.04 171.76 1220.92 181.12 1216.84 189.12H1201.96Z" fill="#191919" />
</svg>